<?xml version="1.0" encoding="UTF-8" ?>
<testsuite tests="59" failures="0" name="sys519.HttpMigrationTest" time="0.007" errors="6" skipped="2">
  <properties>
    <property name="java.runtime.name" value="Java(TM) SE Runtime Environment"/>
    <property name="sun.boot.library.path" value="/Library/Java/JavaVirtualMachines/jdk1.8.0_73.jdk/Contents/Home/jre/lib"/>
    <property name="java.vm.version" value="25.73-b02"/>
    <property name="user.country.format" value="GB"/>
    <property name="gopherProxySet" value="false"/>
    <property name="java.vm.vendor" value="Oracle Corporation"/>
    <property name="maven.multiModuleProjectDirectory" value="/Users/rajaramanmahalingam/SYS-519/httpsTest"/>
    <property name="java.vendor.url" value="http://java.oracle.com/"/>
    <property name="path.separator" value=":"/>
    <property name="guice.disable.misplaced.annotation.check" value="true"/>
    <property name="java.vm.name" value="Java HotSpot(TM) 64-Bit Server VM"/>
    <property name="file.encoding.pkg" value="sun.io"/>
    <property name="user.country" value="US"/>
    <property name="sun.java.launcher" value="SUN_STANDARD"/>
    <property name="sun.os.patch.level" value="unknown"/>
    <property name="java.vm.specification.name" value="Java Virtual Machine Specification"/>
    <property name="user.dir" value="/Users/rajaramanmahalingam/SYS-519/httpsTest"/>
    <property name="java.runtime.version" value="1.8.0_73-b02"/>
    <property name="java.awt.graphicsenv" value="sun.awt.CGraphicsEnvironment"/>
    <property name="java.endorsed.dirs" value="/Library/Java/JavaVirtualMachines/jdk1.8.0_73.jdk/Contents/Home/jre/lib/endorsed"/>
    <property name="os.arch" value="x86_64"/>
    <property name="java.io.tmpdir" value="/var/folders/_8/5vbvc42j5915v0flqq4fxp1d90qdgd/T/"/>
    <property name="line.separator" value="
"/>
    <property name="java.vm.specification.vendor" value="Oracle Corporation"/>
    <property name="os.name" value="Mac OS X"/>
    <property name="classworlds.conf" value="/Users/rajaramanmahalingam/SYS-519/.metadata/.plugins/org.eclipse.m2e.launching/launches/m2conf6011690679965855006.tmp"/>
    <property name="sun.jnu.encoding" value="UTF-8"/>
    <property name="java.library.path" value="/Users/rajaramanmahalingam/Library/Java/Extensions:/Library/Java/Extensions:/Network/Library/Java/Extensions:/System/Library/Java/Extensions:/usr/lib/java:."/>
    <property name="java.specification.name" value="Java Platform API Specification"/>
    <property name="java.class.version" value="52.0"/>
    <property name="sun.management.compiler" value="HotSpot 64-Bit Tiered Compilers"/>
    <property name="os.version" value="10.11.6"/>
    <property name="http.nonProxyHosts" value="local|*.local|169.254/16|*.169.254/16"/>
    <property name="user.home" value="/Users/rajaramanmahalingam"/>
    <property name="user.timezone" value="Europe/London"/>
    <property name="java.awt.printerjob" value="sun.lwawt.macosx.CPrinterJob"/>
    <property name="java.specification.version" value="1.8"/>
    <property name="file.encoding" value="UTF-8"/>
    <property name="user.name" value="rajaramanmahalingam"/>
    <property name="java.class.path" value="/Applications/Eclipse.app/Contents/Eclipse/plugins/org.eclipse.m2e.maven.runtime_1.6.2.20150902-0001/jars/plexus-classworlds-2.5.2.jar"/>
    <property name="java.vm.specification.version" value="1.8"/>
    <property name="sun.arch.data.model" value="64"/>
    <property name="java.home" value="/Library/Java/JavaVirtualMachines/jdk1.8.0_73.jdk/Contents/Home/jre"/>
    <property name="sun.java.command" value="org.codehaus.plexus.classworlds.launcher.Launcher -B install"/>
    <property name="java.specification.vendor" value="Oracle Corporation"/>
    <property name="user.language" value="en"/>
    <property name="awt.toolkit" value="sun.lwawt.macosx.LWCToolkit"/>
    <property name="java.vm.info" value="mixed mode"/>
    <property name="java.version" value="1.8.0_73"/>
    <property name="java.ext.dirs" value="/Users/rajaramanmahalingam/Library/Java/Extensions:/Library/Java/JavaVirtualMachines/jdk1.8.0_73.jdk/Contents/Home/jre/lib/ext:/Library/Java/Extensions:/Network/Library/Java/Extensions:/System/Library/Java/Extensions:/usr/lib/java"/>
    <property name="sun.boot.class.path" value="/Library/Java/JavaVirtualMachines/jdk1.8.0_73.jdk/Contents/Home/jre/lib/resources.jar:/Library/Java/JavaVirtualMachines/jdk1.8.0_73.jdk/Contents/Home/jre/lib/rt.jar:/Library/Java/JavaVirtualMachines/jdk1.8.0_73.jdk/Contents/Home/jre/lib/sunrsasign.jar:/Library/Java/JavaVirtualMachines/jdk1.8.0_73.jdk/Contents/Home/jre/lib/jsse.jar:/Library/Java/JavaVirtualMachines/jdk1.8.0_73.jdk/Contents/Home/jre/lib/jce.jar:/Library/Java/JavaVirtualMachines/jdk1.8.0_73.jdk/Contents/Home/jre/lib/charsets.jar:/Library/Java/JavaVirtualMachines/jdk1.8.0_73.jdk/Contents/Home/jre/lib/jfr.jar:/Library/Java/JavaVirtualMachines/jdk1.8.0_73.jdk/Contents/Home/jre/classes"/>
    <property name="java.vendor" value="Oracle Corporation"/>
    <property name="maven.home" value="/Users/rajaramanmahalingam/SYS-519/httpsTest/EMBEDDED"/>
    <property name="file.separator" value="/"/>
    <property name="java.vendor.url.bug" value="http://bugreport.sun.com/bugreport/"/>
    <property name="sun.cpu.endian" value="little"/>
    <property name="sun.io.unicode.encoding" value="UnicodeBig"/>
    <property name="socksNonProxyHosts" value="local|*.local|169.254/16|*.169.254/16"/>
    <property name="ftp.nonProxyHosts" value="local|*.local|169.254/16|*.169.254/16"/>
    <property name="sun.cpu.isalist" value=""/>
  </properties>
  <testcase classname="| response.body[*].header.div.nav.section.ul.li.a.Sport | &apos;href=&quot;https://secure.southportvisiter.co.uk/sport/&quot;&apos; |" name="* configure headers = {Pragma: &apos;akamai-x-cache-on, akamai-x-cache-remote-on, akamai-x-check-cacheable, akamai-x-get-cache-key, akamai-x-get-extracted-values, akamai-x-get-nonces, akamai-x-get-ssl-client-session-id, akamai-x-get-true-cache-key, akamai-x-serial-no, akamai-x-get-request-id, akamai-x-request-trace, akamai-x--meta-trace, akama-xi-get-extracted-values&apos; }" time="0.001"/>
  <testcase classname="| response.body[*].header.div.nav.section.ul.li.a.Sport | &apos;href=&quot;https://secure.southportvisiter.co.uk/sport/&quot;&apos; |" name="* url &apos;https://secure.southportvisiter.co.uk/&apos;" time="0"/>
  <testcase classname="| response.body[*].header.div.nav.section.ul.li.a.Sport | &apos;href=&quot;https://secure.southportvisiter.co.uk/sport/&quot;&apos; |" name="Given cookie allowHttps = true" time="0"/>
  <testcase classname="| response.body[*].header.div.nav.section.ul.li.a.Sport | &apos;href=&quot;https://secure.southportvisiter.co.uk/sport/&quot;&apos; |" name="And header Accept = &apos;text/html&apos;" time="0"/>
  <testcase classname="| response.body[*].header.div.nav.section.ul.li.a.Sport | &apos;href=&quot;https://secure.southportvisiter.co.uk/sport/&quot;&apos; |" name="And request &apos;/&apos;" time="0"/>
  <testcase classname="| response.body[*].header.div.nav.section.ul.li.a.Sport | &apos;href=&quot;https://secure.southportvisiter.co.uk/sport/&quot;&apos; |" name="When method get" time="0"/>
  <testcase classname="| response.body[*].header.div.nav.section.ul.li.a.Sport | &apos;href=&quot;https://secure.southportvisiter.co.uk/sport/&quot;&apos; |" name="Then status 200" time="0"/>
  <testcase classname="| response.body[*].header.div.nav.section.ul.li.a.Sport | &apos;href=&quot;https://secure.southportvisiter.co.uk/sport/&quot;&apos; |" name="And match response.href[*] contains &apos;https://secure.southportvisiter.co.uk&apos;" time="0"/>
  <testcase classname="| response.body[*].header.div.nav.section.ul.li.a.Sport | &apos;href=&quot;https://secure.southportvisiter.co.uk/sport/&quot;&apos; |" name="And match response.head.title contains &apos;Southport Visiter: Southport News, Southport FC, Sport &amp;amp;&apos;" time="0"/>
  <testcase classname="| response.body[*].header.div.nav.section.ul.li.a.Sport | &apos;href=&quot;https://secure.southportvisiter.co.uk/sport/&quot;&apos; |" name="And match response.body[*].header.div.nav.section.ul.li.a.Sport contains &apos;href=&quot;https://secure.southportvisiter.co.uk/sport/&quot;&apos;" time="0"/>
  <testcase classname="| response.body[*].header.div.nav.section.ul.li.a.Sport | &apos;href=&quot;https://secure.southportvisiter.co.uk/sport/&quot;&apos; |" name="And match responseHeaders.X-Akamai-Session-Info contains &apos;name=STRICT_BASELINE_V1ARL_CHECKS; value=&lt;&lt;ENCRYPTED&gt;&gt;&apos;" time="0"/>
  <testcase classname="| response.body[*].header.div.nav.section.ul.li.a.Sport | &apos;href=&quot;https://secure.southportvisiter.co.uk/sport/&quot;&apos; |" name="And match count(response.body[*].header.div.nav.section.ul.li) == 5" time="0.002">
    <error type="java.lang.NullPointerException">java.lang.NullPointerException
	at com.intuit.karate.Script.matchNamed(Script.java:484)
	at com.intuit.karate.StepDefs.matchNamed(StepDefs.java:508)
	at com.intuit.karate.StepDefs.matchEquals(StepDefs.java:498)
	at ✽.And match count(response.body[*].header.div.nav.section.ul.li) == 5(sys519/httpsScenarios.feature:27)
</error>
  </testcase>
  <testcase classname="| response.body[*].header.div.nav.section.ul.li.a.Sport | &apos;href=&quot;https://secure.southportvisiter.co.uk/sport/&quot;&apos; |" name="| response.body[*].header.div.nav.section.ul.li.a.Sport | &apos;href=&quot;https://secure.southportvisiter.co.uk/sport/&quot;&apos; |" time="0.002">
    <error type="java.lang.NullPointerException">java.lang.NullPointerException
	at com.intuit.karate.Script.matchNamed(Script.java:484)
	at com.intuit.karate.StepDefs.matchNamed(StepDefs.java:508)
	at com.intuit.karate.StepDefs.matchEquals(StepDefs.java:498)
	at ✽.And match count(response.body[*].header.div.nav.section.ul.li) == 5(sys519/httpsScenarios.feature:27)
</error>
  </testcase>
  <testcase classname="| response.body[*].header.div.nav.section.ul.li.a.News | &apos;href=&quot;https://secure.southportvisiter.co.uk/news/&quot;&apos; |" name="* configure headers = {Pragma: &apos;akamai-x-cache-on, akamai-x-cache-remote-on, akamai-x-check-cacheable, akamai-x-get-cache-key, akamai-x-get-extracted-values, akamai-x-get-nonces, akamai-x-get-ssl-client-session-id, akamai-x-get-true-cache-key, akamai-x-serial-no, akamai-x-get-request-id, akamai-x-request-trace, akamai-x--meta-trace, akama-xi-get-extracted-values&apos; }" time="0"/>
  <testcase classname="| response.body[*].header.div.nav.section.ul.li.a.News | &apos;href=&quot;https://secure.southportvisiter.co.uk/news/&quot;&apos; |" name="* url &apos;https://secure.southportvisiter.co.uk/&apos;" time="0"/>
  <testcase classname="| response.body[*].header.div.nav.section.ul.li.a.News | &apos;href=&quot;https://secure.southportvisiter.co.uk/news/&quot;&apos; |" name="Given cookie allowHttps = true" time="0"/>
  <testcase classname="| response.body[*].header.div.nav.section.ul.li.a.News | &apos;href=&quot;https://secure.southportvisiter.co.uk/news/&quot;&apos; |" name="And header Accept = &apos;text/html&apos;" time="0"/>
  <testcase classname="| response.body[*].header.div.nav.section.ul.li.a.News | &apos;href=&quot;https://secure.southportvisiter.co.uk/news/&quot;&apos; |" name="And request &apos;/&apos;" time="0"/>
  <testcase classname="| response.body[*].header.div.nav.section.ul.li.a.News | &apos;href=&quot;https://secure.southportvisiter.co.uk/news/&quot;&apos; |" name="When method get" time="0"/>
  <testcase classname="| response.body[*].header.div.nav.section.ul.li.a.News | &apos;href=&quot;https://secure.southportvisiter.co.uk/news/&quot;&apos; |" name="Then status 200" time="0"/>
  <testcase classname="| response.body[*].header.div.nav.section.ul.li.a.News | &apos;href=&quot;https://secure.southportvisiter.co.uk/news/&quot;&apos; |" name="And match response.href[*] contains &apos;https://secure.southportvisiter.co.uk&apos;" time="0"/>
  <testcase classname="| response.body[*].header.div.nav.section.ul.li.a.News | &apos;href=&quot;https://secure.southportvisiter.co.uk/news/&quot;&apos; |" name="And match response.head.title contains &apos;Southport Visiter: Southport News, Southport FC, Sport &amp;amp;&apos;" time="0"/>
  <testcase classname="| response.body[*].header.div.nav.section.ul.li.a.News | &apos;href=&quot;https://secure.southportvisiter.co.uk/news/&quot;&apos; |" name="And match response.body[*].header.div.nav.section.ul.li.a.News contains &apos;href=&quot;https://secure.southportvisiter.co.uk/news/&quot;&apos;" time="0"/>
  <testcase classname="| response.body[*].header.div.nav.section.ul.li.a.News | &apos;href=&quot;https://secure.southportvisiter.co.uk/news/&quot;&apos; |" name="And match responseHeaders.X-Akamai-Session-Info contains &apos;name=STRICT_BASELINE_V1ARL_CHECKS; value=&lt;&lt;ENCRYPTED&gt;&gt;&apos;" time="0"/>
  <testcase classname="| response.body[*].header.div.nav.section.ul.li.a.News | &apos;href=&quot;https://secure.southportvisiter.co.uk/news/&quot;&apos; |" name="And match count(response.body[*].header.div.nav.section.ul.li) == 5" time="0">
    <error type="java.lang.NullPointerException">java.lang.NullPointerException
	at com.intuit.karate.Script.matchNamed(Script.java:484)
	at com.intuit.karate.StepDefs.matchNamed(StepDefs.java:508)
	at com.intuit.karate.StepDefs.matchEquals(StepDefs.java:498)
	at ✽.And match count(response.body[*].header.div.nav.section.ul.li) == 5(sys519/httpsScenarios.feature:27)
</error>
  </testcase>
  <testcase classname="| response.body[*].header.div.nav.section.ul.li.a.News | &apos;href=&quot;https://secure.southportvisiter.co.uk/news/&quot;&apos; |" name="| response.body[*].header.div.nav.section.ul.li.a.News | &apos;href=&quot;https://secure.southportvisiter.co.uk/news/&quot;&apos; |" time="0">
    <error type="java.lang.NullPointerException">java.lang.NullPointerException
	at com.intuit.karate.Script.matchNamed(Script.java:484)
	at com.intuit.karate.StepDefs.matchNamed(StepDefs.java:508)
	at com.intuit.karate.StepDefs.matchEquals(StepDefs.java:498)
	at ✽.And match count(response.body[*].header.div.nav.section.ul.li) == 5(sys519/httpsScenarios.feature:27)
</error>
  </testcase>
  <testcase classname="Scenario: Verify if the response is 301 when the cookie allowHttps is set to &apos;false&apos; and the secure url is accessed" name="* configure headers = {Pragma: &apos;akamai-x-cache-on, akamai-x-cache-remote-on, akamai-x-check-cacheable, akamai-x-get-cache-key, akamai-x-get-extracted-values, akamai-x-get-nonces, akamai-x-get-ssl-client-session-id, akamai-x-get-true-cache-key, akamai-x-serial-no, akamai-x-get-request-id, akamai-x-request-trace, akamai-x--meta-trace, akama-xi-get-extracted-values&apos; }" time="0"/>
  <testcase classname="Scenario: Verify if the response is 301 when the cookie allowHttps is set to &apos;false&apos; and the secure url is accessed" name="* url &apos;https://secure.southportvisiter.co.uk&apos;" time="0"/>
  <testcase classname="Scenario: Verify if the response is 301 when the cookie allowHttps is set to &apos;false&apos; and the secure url is accessed" name="Given cookie allowHttps = false" time="0"/>
  <testcase classname="Scenario: Verify if the response is 301 when the cookie allowHttps is set to &apos;false&apos; and the secure url is accessed" name="And header Accept = &apos;text/html&apos;" time="0"/>
  <testcase classname="Scenario: Verify if the response is 301 when the cookie allowHttps is set to &apos;false&apos; and the secure url is accessed" name="And request &apos;/&apos;" time="0"/>
  <testcase classname="Scenario: Verify if the response is 301 when the cookie allowHttps is set to &apos;false&apos; and the secure url is accessed" name="When method get" time="0"/>
  <testcase classname="Scenario: Verify if the response is 301 when the cookie allowHttps is set to &apos;false&apos; and the secure url is accessed" name="Then status 301" time="0"/>
  <testcase classname="Scenario: Verify if the response is 301 when the cookie allowHttps is set to &apos;false&apos; and the secure url is accessed" name="Scenario: Verify if the response is 301 when the cookie allowHttps is set to &apos;false&apos; and the secure url is accessed" time="0"/>
  <testcase classname="Scenario: Verify if the response is 301 when the cookie allowHTTPS is not set and the secure url is accessed" name="* configure headers = {Pragma: &apos;akamai-x-cache-on, akamai-x-cache-remote-on, akamai-x-check-cacheable, akamai-x-get-cache-key, akamai-x-get-extracted-values, akamai-x-get-nonces, akamai-x-get-ssl-client-session-id, akamai-x-get-true-cache-key, akamai-x-serial-no, akamai-x-get-request-id, akamai-x-request-trace, akamai-x--meta-trace, akama-xi-get-extracted-values&apos; }" time="0"/>
  <testcase classname="Scenario: Verify if the response is 301 when the cookie allowHTTPS is not set and the secure url is accessed" name="* url &apos;https://secure.southportvisiter.co.uk&apos;" time="0"/>
  <testcase classname="Scenario: Verify if the response is 301 when the cookie allowHTTPS is not set and the secure url is accessed" name="Given request &apos;/&apos;" time="0"/>
  <testcase classname="Scenario: Verify if the response is 301 when the cookie allowHTTPS is not set and the secure url is accessed" name="And header Accept = &apos;text/html&apos;" time="0"/>
  <testcase classname="Scenario: Verify if the response is 301 when the cookie allowHTTPS is not set and the secure url is accessed" name="When method get" time="0"/>
  <testcase classname="Scenario: Verify if the response is 301 when the cookie allowHTTPS is not set and the secure url is accessed" name="Then status 301" time="0"/>
  <testcase classname="Scenario: Verify if the response is 301 when the cookie allowHTTPS is not set and the secure url is accessed" name="Scenario: Verify if the response is 301 when the cookie allowHTTPS is not set and the secure url is accessed" time="0"/>
  <testcase classname="Scenario: Verify if the response is not over HTTPS when non-secured url is accessed" name="* configure headers = {Pragma: &apos;akamai-x-cache-on, akamai-x-cache-remote-on, akamai-x-check-cacheable, akamai-x-get-cache-key, akamai-x-get-extracted-values, akamai-x-get-nonces, akamai-x-get-ssl-client-session-id, akamai-x-get-true-cache-key, akamai-x-serial-no, akamai-x-get-request-id, akamai-x-request-trace, akamai-x--meta-trace, akama-xi-get-extracted-values&apos; }" time="0"/>
  <testcase classname="Scenario: Verify if the response is not over HTTPS when non-secured url is accessed" name="* url &apos;http://southportvisiter.co.uk&apos;" time="0"/>
  <testcase classname="Scenario: Verify if the response is not over HTTPS when non-secured url is accessed" name="Given request &apos;/&apos;" time="0"/>
  <testcase classname="Scenario: Verify if the response is not over HTTPS when non-secured url is accessed" name="And header Accept = &apos;text/html&apos;" time="0"/>
  <testcase classname="Scenario: Verify if the response is not over HTTPS when non-secured url is accessed" name="When method get" time="0"/>
  <testcase classname="Scenario: Verify if the response is not over HTTPS when non-secured url is accessed" name="Then status 200" time="0"/>
  <testcase classname="Scenario: Verify if the response is not over HTTPS when non-secured url is accessed" name="And match responseHeaders.X-Akamai-Session-Info !contains &apos;name=STRICT_BASELINE_V1ARL_CHECKS; value=&lt;&lt;ENCRYPTED&gt;&gt;&apos;" time="0">
    <skipped/>
  </testcase>
  <testcase classname="Scenario: Verify if the response is not over HTTPS when non-secured url is accessed" name="Scenario: Verify if the response is not over HTTPS when non-secured url is accessed" time="0">
    <skipped/>
  </testcase>
  <testcase classname="Scenario: Verify if the response is not over HTTPS when non-secured url is accessed" name="Scenario: Verify if the response is not over HTTPS when non-secured url is accessed" time="0"/>
  <testcase classname="Scenario: Verify if the redirection does not happen when non-secured url is accessed even if allowHttps = true" name="* configure headers = {Pragma: &apos;akamai-x-cache-on, akamai-x-cache-remote-on, akamai-x-check-cacheable, akamai-x-get-cache-key, akamai-x-get-extracted-values, akamai-x-get-nonces, akamai-x-get-ssl-client-session-id, akamai-x-get-true-cache-key, akamai-x-serial-no, akamai-x-get-request-id, akamai-x-request-trace, akamai-x--meta-trace, akama-xi-get-extracted-values&apos; }" time="0"/>
  <testcase classname="Scenario: Verify if the redirection does not happen when non-secured url is accessed even if allowHttps = true" name="* url &apos;http://southportvisiter.co.uk&apos;" time="0"/>
  <testcase classname="Scenario: Verify if the redirection does not happen when non-secured url is accessed even if allowHttps = true" name="Given cookie allowHttps = true" time="0"/>
  <testcase classname="Scenario: Verify if the redirection does not happen when non-secured url is accessed even if allowHttps = true" name="And header Accept = &apos;text/html&apos;" time="0"/>
  <testcase classname="Scenario: Verify if the redirection does not happen when non-secured url is accessed even if allowHttps = true" name="And request &apos;/&apos;" time="0"/>
  <testcase classname="Scenario: Verify if the redirection does not happen when non-secured url is accessed even if allowHttps = true" name="When method get" time="0"/>
  <testcase classname="Scenario: Verify if the redirection does not happen when non-secured url is accessed even if allowHttps = true" name="Then status 200" time="0"/>
  <testcase classname="Scenario: Verify if the redirection does not happen when non-secured url is accessed even if allowHttps = true" name="And assert responseHeaders.X-Akamai-Session-Info contains &apos;name=TCP_FAST_ESSL_E2U; value=0&apos;" time="0.001">
    <error message="script failed: responseHeaders.X-Akamai-Session-Info contains &apos;name=TCP_FAST_ESSL_E2U; value=0&apos;" type="java.lang.RuntimeException">java.lang.RuntimeException: script failed: responseHeaders.X-Akamai-Session-Info contains &apos;name=TCP_FAST_ESSL_E2U; value=0&apos;
	at com.intuit.karate.Script.evalInNashorn(Script.java:303)
	at com.intuit.karate.Script.evalInNashorn(Script.java:277)
	at com.intuit.karate.Script.assertBoolean(Script.java:1051)
	at com.intuit.karate.StepDefs.asssertBoolean(StepDefs.java:229)
	at ✽.And assert responseHeaders.X-Akamai-Session-Info contains &apos;name=TCP_FAST_ESSL_E2U; value=0&apos;(sys519/httpsScenarios.feature:85)
Caused by: javax.script.ScriptException: &lt;eval&gt;:1:38 Expected ; but found contains
responseHeaders.X-Akamai-Session-Info contains &apos;name=TCP_FAST_ESSL_E2U; value=0&apos;
                                      ^ in &lt;eval&gt; at line number 1 at column number 38
	at jdk.nashorn.api.scripting.NashornScriptEngine.throwAsScriptException(NashornScriptEngine.java:467)
	at jdk.nashorn.api.scripting.NashornScriptEngine.compileImpl(NashornScriptEngine.java:534)
	at jdk.nashorn.api.scripting.NashornScriptEngine.compileImpl(NashornScriptEngine.java:521)
	at jdk.nashorn.api.scripting.NashornScriptEngine.evalImpl(NashornScriptEngine.java:399)
	at jdk.nashorn.api.scripting.NashornScriptEngine.eval(NashornScriptEngine.java:155)
	at javax.script.AbstractScriptEngine.eval(AbstractScriptEngine.java:264)
	at com.intuit.karate.Script.evalInNashorn(Script.java:298)
	at com.intuit.karate.Script.evalInNashorn(Script.java:277)
	at com.intuit.karate.Script.assertBoolean(Script.java:1051)
	at com.intuit.karate.StepDefs.asssertBoolean(StepDefs.java:229)
	at sun.reflect.NativeMethodAccessorImpl.invoke0(Native Method)
	at sun.reflect.NativeMethodAccessorImpl.invoke(NativeMethodAccessorImpl.java:62)
	at sun.reflect.DelegatingMethodAccessorImpl.invoke(DelegatingMethodAccessorImpl.java:43)
	at java.lang.reflect.Method.invoke(Method.java:497)
	at cucumber.runtime.Utils$1.call(Utils.java:40)
	at cucumber.runtime.Timeout.timeout(Timeout.java:16)
	at cucumber.runtime.Utils.invoke(Utils.java:34)
	at cucumber.runtime.java.JavaStepDefinition.execute(JavaStepDefinition.java:38)
	at cucumber.runtime.StepDefinitionMatch.runStep(StepDefinitionMatch.java:37)
	at cucumber.runtime.Runtime.runStep(Runtime.java:300)
	at cucumber.runtime.model.StepContainer.runStep(StepContainer.java:44)
	at cucumber.runtime.model.StepContainer.runSteps(StepContainer.java:39)
	at cucumber.runtime.model.CucumberScenario.run(CucumberScenario.java:44)
	at cucumber.runtime.junit.ExecutionUnitRunner.run(ExecutionUnitRunner.java:102)
	at cucumber.runtime.junit.FeatureRunner.runChild(FeatureRunner.java:63)
	at cucumber.runtime.junit.FeatureRunner.runChild(FeatureRunner.java:18)
	at org.junit.runners.ParentRunner$3.run(ParentRunner.java:290)
	at org.junit.runners.ParentRunner$1.schedule(ParentRunner.java:71)
	at org.junit.runners.ParentRunner.runChildren(ParentRunner.java:288)
	at org.junit.runners.ParentRunner.access$000(ParentRunner.java:58)
	at org.junit.runners.ParentRunner$2.evaluate(ParentRunner.java:268)
	at org.junit.runners.ParentRunner.run(ParentRunner.java:363)
	at cucumber.runtime.junit.FeatureRunner.run(FeatureRunner.java:70)
	at com.intuit.karate.junit4.Karate.runChild(Karate.java:60)
	at com.intuit.karate.junit4.Karate.runChild(Karate.java:25)
	at org.junit.runners.ParentRunner$3.run(ParentRunner.java:290)
	at org.junit.runners.ParentRunner$1.schedule(ParentRunner.java:71)
	at org.junit.runners.ParentRunner.runChildren(ParentRunner.java:288)
	at org.junit.runners.ParentRunner.access$000(ParentRunner.java:58)
	at org.junit.runners.ParentRunner$2.evaluate(ParentRunner.java:268)
	at org.junit.runners.ParentRunner.run(ParentRunner.java:363)
	at com.intuit.karate.junit4.Karate.run(Karate.java:66)
	at org.apache.maven.surefire.junit4.JUnit4Provider.execute(JUnit4Provider.java:252)
	at org.apache.maven.surefire.junit4.JUnit4Provider.executeTestSet(JUnit4Provider.java:141)
	at org.apache.maven.surefire.junit4.JUnit4Provider.invoke(JUnit4Provider.java:112)
	at sun.reflect.NativeMethodAccessorImpl.invoke0(Native Method)
	at sun.reflect.NativeMethodAccessorImpl.invoke(NativeMethodAccessorImpl.java:62)
	at sun.reflect.DelegatingMethodAccessorImpl.invoke(DelegatingMethodAccessorImpl.java:43)
	at java.lang.reflect.Method.invoke(Method.java:497)
	at org.apache.maven.surefire.util.ReflectionUtils.invokeMethodWithArray(ReflectionUtils.java:189)
	at org.apache.maven.surefire.booter.ProviderFactory$ProviderProxy.invoke(ProviderFactory.java:165)
	at org.apache.maven.surefire.booter.ProviderFactory.invokeProvider(ProviderFactory.java:85)
	at org.apache.maven.surefire.booter.ForkedBooter.runSuitesInProcess(ForkedBooter.java:115)
	at org.apache.maven.surefire.booter.ForkedBooter.main(ForkedBooter.java:75)
Caused by: jdk.nashorn.internal.runtime.ParserException: &lt;eval&gt;:1:38 Expected ; but found contains
responseHeaders.X-Akamai-Session-Info contains &apos;name=TCP_FAST_ESSL_E2U; value=0&apos;
                                      ^
	at jdk.nashorn.internal.parser.AbstractParser.error(AbstractParser.java:292)
	at jdk.nashorn.internal.parser.AbstractParser.error(AbstractParser.java:277)
	at jdk.nashorn.internal.parser.AbstractParser.expectDontAdvance(AbstractParser.java:348)
	at jdk.nashorn.internal.parser.AbstractParser.expect(AbstractParser.java:335)
	at jdk.nashorn.internal.parser.Parser.endOfLine(Parser.java:3369)
	at jdk.nashorn.internal.parser.Parser.expressionStatement(Parser.java:1162)
	at jdk.nashorn.internal.parser.Parser.statement(Parser.java:969)
	at jdk.nashorn.internal.parser.Parser.sourceElements(Parser.java:775)
	at jdk.nashorn.internal.parser.Parser.program(Parser.java:711)
	at jdk.nashorn.internal.parser.Parser.parse(Parser.java:284)
	at jdk.nashorn.internal.parser.Parser.parse(Parser.java:250)
	at jdk.nashorn.internal.runtime.Context.compile(Context.java:1281)
	at jdk.nashorn.internal.runtime.Context.compileScript(Context.java:1248)
	at jdk.nashorn.internal.runtime.Context.compileScript(Context.java:629)
	at jdk.nashorn.api.scripting.NashornScriptEngine.compileImpl(NashornScriptEngine.java:532)
	... 52 more
</error>
  </testcase>
  <testcase classname="Scenario: Verify if the redirection does not happen when non-secured url is accessed even if allowHttps = true" name="Scenario: Verify if the redirection does not happen when non-secured url is accessed even if allowHttps = true" time="0.001">
    <error message="script failed: responseHeaders.X-Akamai-Session-Info contains &apos;name=TCP_FAST_ESSL_E2U; value=0&apos;" type="java.lang.RuntimeException">java.lang.RuntimeException: script failed: responseHeaders.X-Akamai-Session-Info contains &apos;name=TCP_FAST_ESSL_E2U; value=0&apos;
	at com.intuit.karate.Script.evalInNashorn(Script.java:303)
	at com.intuit.karate.Script.evalInNashorn(Script.java:277)
	at com.intuit.karate.Script.assertBoolean(Script.java:1051)
	at com.intuit.karate.StepDefs.asssertBoolean(StepDefs.java:229)
	at ✽.And assert responseHeaders.X-Akamai-Session-Info contains &apos;name=TCP_FAST_ESSL_E2U; value=0&apos;(sys519/httpsScenarios.feature:85)
Caused by: javax.script.ScriptException: &lt;eval&gt;:1:38 Expected ; but found contains
responseHeaders.X-Akamai-Session-Info contains &apos;name=TCP_FAST_ESSL_E2U; value=0&apos;
                                      ^ in &lt;eval&gt; at line number 1 at column number 38
	at jdk.nashorn.api.scripting.NashornScriptEngine.throwAsScriptException(NashornScriptEngine.java:467)
	at jdk.nashorn.api.scripting.NashornScriptEngine.compileImpl(NashornScriptEngine.java:534)
	at jdk.nashorn.api.scripting.NashornScriptEngine.compileImpl(NashornScriptEngine.java:521)
	at jdk.nashorn.api.scripting.NashornScriptEngine.evalImpl(NashornScriptEngine.java:399)
	at jdk.nashorn.api.scripting.NashornScriptEngine.eval(NashornScriptEngine.java:155)
	at javax.script.AbstractScriptEngine.eval(AbstractScriptEngine.java:264)
	at com.intuit.karate.Script.evalInNashorn(Script.java:298)
	at com.intuit.karate.Script.evalInNashorn(Script.java:277)
	at com.intuit.karate.Script.assertBoolean(Script.java:1051)
	at com.intuit.karate.StepDefs.asssertBoolean(StepDefs.java:229)
	at sun.reflect.NativeMethodAccessorImpl.invoke0(Native Method)
	at sun.reflect.NativeMethodAccessorImpl.invoke(NativeMethodAccessorImpl.java:62)
	at sun.reflect.DelegatingMethodAccessorImpl.invoke(DelegatingMethodAccessorImpl.java:43)
	at java.lang.reflect.Method.invoke(Method.java:497)
	at cucumber.runtime.Utils$1.call(Utils.java:40)
	at cucumber.runtime.Timeout.timeout(Timeout.java:16)
	at cucumber.runtime.Utils.invoke(Utils.java:34)
	at cucumber.runtime.java.JavaStepDefinition.execute(JavaStepDefinition.java:38)
	at cucumber.runtime.StepDefinitionMatch.runStep(StepDefinitionMatch.java:37)
	at cucumber.runtime.Runtime.runStep(Runtime.java:300)
	at cucumber.runtime.model.StepContainer.runStep(StepContainer.java:44)
	at cucumber.runtime.model.StepContainer.runSteps(StepContainer.java:39)
	at cucumber.runtime.model.CucumberScenario.run(CucumberScenario.java:44)
	at cucumber.runtime.junit.ExecutionUnitRunner.run(ExecutionUnitRunner.java:102)
	at cucumber.runtime.junit.FeatureRunner.runChild(FeatureRunner.java:63)
	at cucumber.runtime.junit.FeatureRunner.runChild(FeatureRunner.java:18)
	at org.junit.runners.ParentRunner$3.run(ParentRunner.java:290)
	at org.junit.runners.ParentRunner$1.schedule(ParentRunner.java:71)
	at org.junit.runners.ParentRunner.runChildren(ParentRunner.java:288)
	at org.junit.runners.ParentRunner.access$000(ParentRunner.java:58)
	at org.junit.runners.ParentRunner$2.evaluate(ParentRunner.java:268)
	at org.junit.runners.ParentRunner.run(ParentRunner.java:363)
	at cucumber.runtime.junit.FeatureRunner.run(FeatureRunner.java:70)
	at com.intuit.karate.junit4.Karate.runChild(Karate.java:60)
	at com.intuit.karate.junit4.Karate.runChild(Karate.java:25)
	at org.junit.runners.ParentRunner$3.run(ParentRunner.java:290)
	at org.junit.runners.ParentRunner$1.schedule(ParentRunner.java:71)
	at org.junit.runners.ParentRunner.runChildren(ParentRunner.java:288)
	at org.junit.runners.ParentRunner.access$000(ParentRunner.java:58)
	at org.junit.runners.ParentRunner$2.evaluate(ParentRunner.java:268)
	at org.junit.runners.ParentRunner.run(ParentRunner.java:363)
	at com.intuit.karate.junit4.Karate.run(Karate.java:66)
	at org.apache.maven.surefire.junit4.JUnit4Provider.execute(JUnit4Provider.java:252)
	at org.apache.maven.surefire.junit4.JUnit4Provider.executeTestSet(JUnit4Provider.java:141)
	at org.apache.maven.surefire.junit4.JUnit4Provider.invoke(JUnit4Provider.java:112)
	at sun.reflect.NativeMethodAccessorImpl.invoke0(Native Method)
	at sun.reflect.NativeMethodAccessorImpl.invoke(NativeMethodAccessorImpl.java:62)
	at sun.reflect.DelegatingMethodAccessorImpl.invoke(DelegatingMethodAccessorImpl.java:43)
	at java.lang.reflect.Method.invoke(Method.java:497)
	at org.apache.maven.surefire.util.ReflectionUtils.invokeMethodWithArray(ReflectionUtils.java:189)
	at org.apache.maven.surefire.booter.ProviderFactory$ProviderProxy.invoke(ProviderFactory.java:165)
	at org.apache.maven.surefire.booter.ProviderFactory.invokeProvider(ProviderFactory.java:85)
	at org.apache.maven.surefire.booter.ForkedBooter.runSuitesInProcess(ForkedBooter.java:115)
	at org.apache.maven.surefire.booter.ForkedBooter.main(ForkedBooter.java:75)
Caused by: jdk.nashorn.internal.runtime.ParserException: &lt;eval&gt;:1:38 Expected ; but found contains
responseHeaders.X-Akamai-Session-Info contains &apos;name=TCP_FAST_ESSL_E2U; value=0&apos;
                                      ^
	at jdk.nashorn.internal.parser.AbstractParser.error(AbstractParser.java:292)
	at jdk.nashorn.internal.parser.AbstractParser.error(AbstractParser.java:277)
	at jdk.nashorn.internal.parser.AbstractParser.expectDontAdvance(AbstractParser.java:348)
	at jdk.nashorn.internal.parser.AbstractParser.expect(AbstractParser.java:335)
	at jdk.nashorn.internal.parser.Parser.endOfLine(Parser.java:3369)
	at jdk.nashorn.internal.parser.Parser.expressionStatement(Parser.java:1162)
	at jdk.nashorn.internal.parser.Parser.statement(Parser.java:969)
	at jdk.nashorn.internal.parser.Parser.sourceElements(Parser.java:775)
	at jdk.nashorn.internal.parser.Parser.program(Parser.java:711)
	at jdk.nashorn.internal.parser.Parser.parse(Parser.java:284)
	at jdk.nashorn.internal.parser.Parser.parse(Parser.java:250)
	at jdk.nashorn.internal.runtime.Context.compile(Context.java:1281)
	at jdk.nashorn.internal.runtime.Context.compileScript(Context.java:1248)
	at jdk.nashorn.internal.runtime.Context.compileScript(Context.java:629)
	at jdk.nashorn.api.scripting.NashornScriptEngine.compileImpl(NashornScriptEngine.java:532)
	... 52 more
</error>
  </testcase>
</testsuite>